
state={
	id=18
	name="STATE_18"

	history={
		owner = FRA
		victory_points = {
			9490 5 
		}
		victory_points = {
			13011 5 
		}
		victory_points = {
			3560 1 
		}
		buildings = {
			infrastructure = 7
			industrial_complex = 1
			air_base = 10

		}
		add_core_of = FRA

	}

	provinces={
		551 3533 3546 6531 6545 9472 9505 11732 13011 
	}
	manpower=1370800
	buildings_max_level_factor=1.000
	state_category=city
}
