
state={
	id=209
	name="STATE_209"

	history={
		owner = OTL
		victory_points = {
			11202 3 
		}
		buildings = {
			infrastructure = 6
			air_base = 4

		}
		add_core_of = OTL

	}

	provinces={
		104 126 415 3310 6324 9120 9408 11202 
	}
	manpower=639587
	buildings_max_level_factor=1.000
	state_category=town
}
