
state={
	id=240
	name="STATE_240"

	history={
		victory_points = {
			9449 1 
		}
		owner = UKR
		buildings = {
			infrastructure = 5

		}
		add_core_of = UKR
		1939.1.1 = {
			buildings = {
				industrial_complex = 1

			}

		}

	}

	provinces={
		473 534 3469 3492 6432 6481 6517 6577 9424 9449 9489 9518 9552 11412 11439 11475 11500 
	}
	manpower=1364537
	buildings_max_level_factor=1.000
	state_category=town
}
