
state={
	id=263
	name="STATE_263"

	history={
		owner = MOS
		victory_points = {
			117 5 
		}
		buildings = {
			infrastructure = 5
			air_base = 2

		}
		add_core_of = MOS

	}

	provinces={
		8 71 95 110 117 320 3053 3089 6086 6154 6225 9212 9234 9319 11072 11097 11109 11191 11304 11392 
	}
	manpower=1092577
	buildings_max_level_factor=1.000
	state_category=town
}
