
state={
	id=265
	name="STATE_265"

	history={
		owner = UKR
		buildings = {
			infrastructure = 5

		}
		add_core_of = UKR
		victory_points = {
			487 1 
		}

	}

	provinces={
		518 579 3518 3539 3582 6506 6563 6602 9436 9475 11423 11485 
	}
	manpower=468781
	buildings_max_level_factor=1.000
	state_category=rural
}
