
state={
	id=547
	name="STATE_547"

	history={
		owner = KEN
		buildings = {
			infrastructure = 3
			industrial_complex = 1
			5210 = {
				naval_base = 2

			}

		}
		victory_points = {
			1939 2 
		}
		victory_points = {
			5210 1 
		}
		add_core_of = KEN

	}

	provinces={
		1939 5079 5160 5196 5210 6020 10860 10962 11145 
	}
	manpower=3392000
	buildings_max_level_factor=1.000
	state_category=rural
}
