
state={
	id=680
	name="STATE_680"

	history={
		owner = LEV
		buildings = {
			infrastructure = 2

		}
		add_core_of = LEV

	}

	provinces={
		7513 10383 12316 12442 
	}
	manpower=324110
	buildings_max_level_factor=1.000
	state_category=wasteland
}
