
state={
	id=781
	name="STATE_781" # Niger
	manpower = 543817
	
	state_category = pastoral

	history={
		owner = FRA
		add_core_of = NGR
		buildings = {
			infrastructure = 3
		}
	}

	provinces={
		1975 12707
	}
}
