
state={
	id=829
	name="STATE_829"
	provinces={
		22 44 64 76 128 2995 3016 3040 3058 3082 6015 6079 6092 6107 9042 9064 9089 9116 9128 9191 11034 11050 11063 11077 11104 11169 
	}
	state_category=town
	manpower=10
	buildings_max_level_factor=1.000
	history = {
		owner = FIN
		add_core_of = FIN
	}
}
