state={
	id=94
	name="STATE_94"

	history={
		owner = OTL
		buildings = {
			infrastructure = 3

		}
		victory_points = {
			3392 1
		}
		victory_points = {
			560 1
		}
		add_core_of = OTL
	}

	provinces={
	    560 3256 3309 3392 3556 6280 6306 6415 11285 11528 
	}
	manpower=1232200
	buildings_max_level_factor=1.000
	state_category=rural
}
